2023-03-28 15:03:501 INFO  TestRunner:32 - Execution Starts at: Tue Mar 28 15:42:01 IST 2023
2023-03-28 15:03:712 INFO  PageActions:71 - Navigated to google
2023-03-28 15:03:257 INFO  TestRunner:41 - Execution Ends at: Tue Mar 28 15:42:09 IST 2023
